Label 'subpoint_map':
[0]: 10 (2)
[0]: 17 (1)
[0]: 18 (1)
[0]: 19 (1)
[0]: 3 (0)
[0]: 4 (0)
[0]: 5 (0)
[0]: 0 (103)
[0]: 7 (102)
[0]: 8 (102)
[0]: 9 (102)
[0]: 1 (-103)
[0]: 11 (-102)
[0]: 12 (-102)
[0]: 13 (-102)
[0]: 14 (101)
[0]: 15 (101)
[0]: 16 (101)
[0]: 20 (-101)
[0]: 21 (-101)
[0]: 22 (-101)
Label 'subpoint_map split':
[0]: 4 (100)
[0]: 5 (100)
[0]: 6 (100)
[0]: 8 (-100)
[0]: 9 (-100)
[0]: 10 (-100)
[0]: 25 (101)
[0]: 26 (101)
[0]: 27 (101)
[0]: 31 (-101)
[0]: 32 (-101)
[0]: 33 (-101)
[0]: 14 (102)
[0]: 18 (-102)
Label 'cohesive':
[0]: 2 (1)
[0]: 19 (1)
[0]: 20 (1)
[0]: 21 (1)
[0]: 34 (1)
[0]: 35 (1)
[0]: 36 (1)
PetscSection Object: 1 MPI process
  type not yet set
2 fields
  field 0 with 3 components
Process 0:
  (   0) dim  0 offset   0
  (   1) dim  0 offset   0
  (   2) dim  0 offset   0
  (   3) dim  3 offset   0
  (   4) dim  3 offset   3
  (   5) dim  3 offset   6
  (   6) dim  3 offset   9
  (   7) dim  3 offset  12
  (   8) dim  3 offset  15
  (   9) dim  3 offset  18
  (  10) dim  3 offset  21
  (  11) dim  0 offset  24
  (  12) dim  0 offset  24
  (  13) dim  0 offset  24
  (  14) dim  0 offset  24
  (  15) dim  0 offset  24
  (  16) dim  0 offset  24
  (  17) dim  0 offset  24
  (  18) dim  0 offset  24
  (  19) dim  0 offset  24
  (  20) dim  0 offset  24
  (  21) dim  0 offset  24
  (  22) dim  0 offset  24
  (  23) dim  0 offset  24
  (  24) dim  0 offset  24
  (  25) dim  0 offset  24
  (  26) dim  0 offset  24
  (  27) dim  0 offset  24
  (  28) dim  0 offset  24
  (  29) dim  0 offset  24
  (  30) dim  0 offset  24
  (  31) dim  0 offset  24
  (  32) dim  0 offset  24
  (  33) dim  0 offset  24
  (  34) dim  0 offset  24
  (  35) dim  0 offset  27
  (  36) dim  0 offset  30
  field 1 with 3 components
Process 0:
  (   0) dim  0 offset   0
  (   1) dim  0 offset   0
  (   2) dim  0 offset   0
  (   3) dim  0 offset   3
  (   4) dim  0 offset   6
  (   5) dim  0 offset   9
  (   6) dim  0 offset  12
  (   7) dim  0 offset  15
  (   8) dim  0 offset  18
  (   9) dim  0 offset  21
  (  10) dim  0 offset  24
  (  11) dim  0 offset  24
  (  12) dim  0 offset  24
  (  13) dim  0 offset  24
  (  14) dim  0 offset  24
  (  15) dim  0 offset  24
  (  16) dim  0 offset  24
  (  17) dim  0 offset  24
  (  18) dim  0 offset  24
  (  19) dim  0 offset  24
  (  20) dim  0 offset  24
  (  21) dim  0 offset  24
  (  22) dim  0 offset  24
  (  23) dim  0 offset  24
  (  24) dim  0 offset  24
  (  25) dim  0 offset  24
  (  26) dim  0 offset  24
  (  27) dim  0 offset  24
  (  28) dim  0 offset  24
  (  29) dim  0 offset  24
  (  30) dim  0 offset  24
  (  31) dim  0 offset  24
  (  32) dim  0 offset  24
  (  33) dim  0 offset  24
  (  34) dim  3 offset  24
  (  35) dim  3 offset  27
  (  36) dim  3 offset  30
Vec Object: Local Solution 1 MPI process
  type: seq
0.
0.
-0.5
0.
-0.5
0.
1.
0.
0.
0.
0.5
0.
0.
1.
1.5
0.
0.
0.
0.
0.
0.
0.
0.
0.
0.5
0.
0.
-0.5
0.
0.
0.
1.
0.
Discrete System with 2 fields
    cell total dim 27 total comp 6
    cohesive cell
  Field displacement FEM 3 components (implicit) (Nq 3 Nqc 1) 1-jet
    PetscFE Object: displacement 1 MPI process
      type: basic
      Basic Finite Element in 2 dimensions with 3 components
      PetscSpace Object: displacement 1 MPI process
        type: sum
        Space in 2 variables with 3 components, size 9
        Sum space of 3 concatenated subspaces (all identical)
          PetscSpace Object: sum component 1 MPI process
            type: poly
            Space in 2 variables with 1 components, size 3
            Polynomial space of degree 1
      PetscDualSpace Object: displacement 1 MPI process
        type: lagrange
        Dual space with 3 components, size 9
        Continuous Lagrange dual space
        Quadrature on a triangle of order 2 on 3 points (dim 2)
  Field fault traction FEM 3 components (implicit) (Nq 3 Nqc 1) 1-jet
    PetscFE Object: fault traction (faulttraction_) 1 MPI process
      type: basic
      Basic Finite Element in 2 dimensions with 3 components
      PetscSpace Object: fault traction (faulttraction_) 1 MPI process
        type: sum
        Space in 2 variables with 3 components, size 9
        Sum space of 3 concatenated subspaces (all identical)
          PetscSpace Object: sum component (faulttraction_sumcomp_) 1 MPI process
            type: poly
            Space in 2 variables with 1 components, size 3
            Polynomial space of degree 1
      PetscDualSpace Object: fault traction (faulttraction_) 1 MPI process
        type: lagrange
        Dual space with 3 components, size 9
        Continuous Lagrange dual space
        Quadrature on a triangle of order 2 on 3 points (dim 2)
  Weak Form System with 2 fields
    boundary_residual_f0
      (cohesive, 1) (0, 1) 
      (material, 1) (0, 0) 
      (material, 2) (0, 0) 
    boundary_jacobian_g0
      (cohesive, 1) (1, 0) 
      (material, 1) (0, 1) 
      (material, 2) (0, 1) 
Vec Object: Local Residual 1 MPI process
  type: seq
0.
0.
0.
-0.0208333
-0.0416667
0.
0.0208333
-0.0416667
0.
-8.67362e-19
-0.0833333
0.
0.
0.
0.
0.0208333
0.0416667
0.
-0.0208333
0.0416667
0.
8.67362e-19
0.0833333
0.
0.0416667
0.145833
0.166667
0.0833333
0.166667
0.166667
0.0416667
0.1875
0.166667
Mat Object: Jacobian 1 MPI process
  type: seqaij
row 0: (0, 0.)  (1, 0.)  (2, 0.)  (3, 0.)  (4, 0.)  (5, 0.)  (6, 0.)  (7, 0.)  (8, 0.)  (9, 0.)  (10, 0.)  (11, 0.) 
row 1: (0, 0.)  (1, 0.)  (2, 0.)  (3, 0.)  (4, 0.)  (5, 0.)  (6, 0.)  (7, 0.)  (8, 0.)  (9, 0.)  (10, 0.)  (11, 0.) 
row 2: (0, 0.)  (1, 0.)  (2, 0.)  (3, 0.)  (4, 0.)  (5, 0.)  (6, 0.)  (7, 0.)  (8, 0.)  (9, 0.)  (10, 0.)  (11, 0.) 
row 3: (0, 0.)  (1, 0.)  (2, 0.)  (3, 0.)  (4, 0.)  (5, 0.)  (6, 0.)  (7, 0.)  (8, 0.)  (9, 0.)  (10, 0.)  (11, 0.)  (15, 0.)  (16, 0.)  (17, 0.)  (18, 0.)  (19, 0.)  (20, 0.)  (21, 0.)  (22, 0.)  (23, 0.)  (24, -0.0833333)  (25, 0.)  (26, 0.)  (27, -0.0416667)  (28, 0.)  (29, 0.)  (30, -0.0416667)  (31, 0.)  (32, 0.) 
row 4: (0, 0.)  (1, 0.)  (2, 0.)  (3, 0.)  (4, 0.)  (5, 0.)  (6, 0.)  (7, 0.)  (8, 0.)  (9, 0.)  (10, 0.)  (11, 0.)  (15, 0.)  (16, 0.)  (17, 0.)  (18, 0.)  (19, 0.)  (20, 0.)  (21, 0.)  (22, 0.)  (23, 0.)  (24, 0.)  (25, -0.0833333)  (26, 0.)  (27, 0.)  (28, -0.0416667)  (29, 0.)  (30, 0.)  (31, -0.0416667)  (32, 0.) 
row 5: (0, 0.)  (1, 0.)  (2, 0.)  (3, 0.)  (4, 0.)  (5, 0.)  (6, 0.)  (7, 0.)  (8, 0.)  (9, 0.)  (10, 0.)  (11, 0.)  (15, 0.)  (16, 0.)  (17, 0.)  (18, 0.)  (19, 0.)  (20, 0.)  (21, 0.)  (22, 0.)  (23, 0.)  (24, 0.)  (25, 0.)  (26, -0.0833333)  (27, 0.)  (28, 0.)  (29, -0.0416667)  (30, 0.)  (31, 0.)  (32, -0.0416667) 
row 6: (0, 0.)  (1, 0.)  (2, 0.)  (3, 0.)  (4, 0.)  (5, 0.)  (6, 0.)  (7, 0.)  (8, 0.)  (9, 0.)  (10, 0.)  (11, 0.)  (15, 0.)  (16, 0.)  (17, 0.)  (18, 0.)  (19, 0.)  (20, 0.)  (21, 0.)  (22, 0.)  (23, 0.)  (24, -0.0416667)  (25, 0.)  (26, 0.)  (27, -0.0833333)  (28, 0.)  (29, 0.)  (30, -0.0416667)  (31, 0.)  (32, 0.) 
row 7: (0, 0.)  (1, 0.)  (2, 0.)  (3, 0.)  (4, 0.)  (5, 0.)  (6, 0.)  (7, 0.)  (8, 0.)  (9, 0.)  (10, 0.)  (11, 0.)  (15, 0.)  (16, 0.)  (17, 0.)  (18, 0.)  (19, 0.)  (20, 0.)  (21, 0.)  (22, 0.)  (23, 0.)  (24, 0.)  (25, -0.0416667)  (26, 0.)  (27, 0.)  (28, -0.0833333)  (29, 0.)  (30, 0.)  (31, -0.0416667)  (32, 0.) 
row 8: (0, 0.)  (1, 0.)  (2, 0.)  (3, 0.)  (4, 0.)  (5, 0.)  (6, 0.)  (7, 0.)  (8, 0.)  (9, 0.)  (10, 0.)  (11, 0.)  (15, 0.)  (16, 0.)  (17, 0.)  (18, 0.)  (19, 0.)  (20, 0.)  (21, 0.)  (22, 0.)  (23, 0.)  (24, 0.)  (25, 0.)  (26, -0.0416667)  (27, 0.)  (28, 0.)  (29, -0.0833333)  (30, 0.)  (31, 0.)  (32, -0.0416667) 
row 9: (0, 0.)  (1, 0.)  (2, 0.)  (3, 0.)  (4, 0.)  (5, 0.)  (6, 0.)  (7, 0.)  (8, 0.)  (9, 0.)  (10, 0.)  (11, 0.)  (15, 0.)  (16, 0.)  (17, 0.)  (18, 0.)  (19, 0.)  (20, 0.)  (21, 0.)  (22, 0.)  (23, 0.)  (24, -0.0416667)  (25, 0.)  (26, 0.)  (27, -0.0416667)  (28, 0.)  (29, 0.)  (30, -0.0833333)  (31, 0.)  (32, 0.) 
row 10: (0, 0.)  (1, 0.)  (2, 0.)  (3, 0.)  (4, 0.)  (5, 0.)  (6, 0.)  (7, 0.)  (8, 0.)  (9, 0.)  (10, 0.)  (11, 0.)  (15, 0.)  (16, 0.)  (17, 0.)  (18, 0.)  (19, 0.)  (20, 0.)  (21, 0.)  (22, 0.)  (23, 0.)  (24, 0.)  (25, -0.0416667)  (26, 0.)  (27, 0.)  (28, -0.0416667)  (29, 0.)  (30, 0.)  (31, -0.0833333)  (32, 0.) 
row 11: (0, 0.)  (1, 0.)  (2, 0.)  (3, 0.)  (4, 0.)  (5, 0.)  (6, 0.)  (7, 0.)  (8, 0.)  (9, 0.)  (10, 0.)  (11, 0.)  (15, 0.)  (16, 0.)  (17, 0.)  (18, 0.)  (19, 0.)  (20, 0.)  (21, 0.)  (22, 0.)  (23, 0.)  (24, 0.)  (25, 0.)  (26, -0.0416667)  (27, 0.)  (28, 0.)  (29, -0.0416667)  (30, 0.)  (31, 0.)  (32, -0.0833333) 
row 12: (12, 0.)  (13, 0.)  (14, 0.)  (15, 0.)  (16, 0.)  (17, 0.)  (18, 0.)  (19, 0.)  (20, 0.)  (21, 0.)  (22, 0.)  (23, 0.) 
row 13: (12, 0.)  (13, 0.)  (14, 0.)  (15, 0.)  (16, 0.)  (17, 0.)  (18, 0.)  (19, 0.)  (20, 0.)  (21, 0.)  (22, 0.)  (23, 0.) 
row 14: (12, 0.)  (13, 0.)  (14, 0.)  (15, 0.)  (16, 0.)  (17, 0.)  (18, 0.)  (19, 0.)  (20, 0.)  (21, 0.)  (22, 0.)  (23, 0.) 
row 15: (3, 0.)  (4, 0.)  (5, 0.)  (6, 0.)  (7, 0.)  (8, 0.)  (9, 0.)  (10, 0.)  (11, 0.)  (12, 0.)  (13, 0.)  (14, 0.)  (15, 0.)  (16, 0.)  (17, 0.)  (18, 0.)  (19, 0.)  (20, 0.)  (21, 0.)  (22, 0.)  (23, 0.)  (24, 0.0833333)  (25, 0.)  (26, 0.)  (27, 0.0416667)  (28, 0.)  (29, 0.)  (30, 0.0416667)  (31, 0.)  (32, 0.) 
row 16: (3, 0.)  (4, 0.)  (5, 0.)  (6, 0.)  (7, 0.)  (8, 0.)  (9, 0.)  (10, 0.)  (11, 0.)  (12, 0.)  (13, 0.)  (14, 0.)  (15, 0.)  (16, 0.)  (17, 0.)  (18, 0.)  (19, 0.)  (20, 0.)  (21, 0.)  (22, 0.)  (23, 0.)  (24, 0.)  (25, 0.0833333)  (26, 0.)  (27, 0.)  (28, 0.0416667)  (29, 0.)  (30, 0.)  (31, 0.0416667)  (32, 0.) 
row 17: (3, 0.)  (4, 0.)  (5, 0.)  (6, 0.)  (7, 0.)  (8, 0.)  (9, 0.)  (10, 0.)  (11, 0.)  (12, 0.)  (13, 0.)  (14, 0.)  (15, 0.)  (16, 0.)  (17, 0.)  (18, 0.)  (19, 0.)  (20, 0.)  (21, 0.)  (22, 0.)  (23, 0.)  (24, 0.)  (25, 0.)  (26, 0.0833333)  (27, 0.)  (28, 0.)  (29, 0.0416667)  (30, 0.)  (31, 0.)  (32, 0.0416667) 
row 18: (3, 0.)  (4, 0.)  (5, 0.)  (6, 0.)  (7, 0.)  (8, 0.)  (9, 0.)  (10, 0.)  (11, 0.)  (12, 0.)  (13, 0.)  (14, 0.)  (15, 0.)  (16, 0.)  (17, 0.)  (18, 0.)  (19, 0.)  (20, 0.)  (21, 0.)  (22, 0.)  (23, 0.)  (24, 0.0416667)  (25, 0.)  (26, 0.)  (27, 0.0833333)  (28, 0.)  (29, 0.)  (30, 0.0416667)  (31, 0.)  (32, 0.) 
row 19: (3, 0.)  (4, 0.)  (5, 0.)  (6, 0.)  (7, 0.)  (8, 0.)  (9, 0.)  (10, 0.)  (11, 0.)  (12, 0.)  (13, 0.)  (14, 0.)  (15, 0.)  (16, 0.)  (17, 0.)  (18, 0.)  (19, 0.)  (20, 0.)  (21, 0.)  (22, 0.)  (23, 0.)  (24, 0.)  (25, 0.0416667)  (26, 0.)  (27, 0.)  (28, 0.0833333)  (29, 0.)  (30, 0.)  (31, 0.0416667)  (32, 0.) 
row 20: (3, 0.)  (4, 0.)  (5, 0.)  (6, 0.)  (7, 0.)  (8, 0.)  (9, 0.)  (10, 0.)  (11, 0.)  (12, 0.)  (13, 0.)  (14, 0.)  (15, 0.)  (16, 0.)  (17, 0.)  (18, 0.)  (19, 0.)  (20, 0.)  (21, 0.)  (22, 0.)  (23, 0.)  (24, 0.)  (25, 0.)  (26, 0.0416667)  (27, 0.)  (28, 0.)  (29, 0.0833333)  (30, 0.)  (31, 0.)  (32, 0.0416667) 
row 21: (3, 0.)  (4, 0.)  (5, 0.)  (6, 0.)  (7, 0.)  (8, 0.)  (9, 0.)  (10, 0.)  (11, 0.)  (12, 0.)  (13, 0.)  (14, 0.)  (15, 0.)  (16, 0.)  (17, 0.)  (18, 0.)  (19, 0.)  (20, 0.)  (21, 0.)  (22, 0.)  (23, 0.)  (24, 0.0416667)  (25, 0.)  (26, 0.)  (27, 0.0416667)  (28, 0.)  (29, 0.)  (30, 0.0833333)  (31, 0.)  (32, 0.) 
row 22: (3, 0.)  (4, 0.)  (5, 0.)  (6, 0.)  (7, 0.)  (8, 0.)  (9, 0.)  (10, 0.)  (11, 0.)  (12, 0.)  (13, 0.)  (14, 0.)  (15, 0.)  (16, 0.)  (17, 0.)  (18, 0.)  (19, 0.)  (20, 0.)  (21, 0.)  (22, 0.)  (23, 0.)  (24, 0.)  (25, 0.0416667)  (26, 0.)  (27, 0.)  (28, 0.0416667)  (29, 0.)  (30, 0.)  (31, 0.0833333)  (32, 0.) 
row 23: (3, 0.)  (4, 0.)  (5, 0.)  (6, 0.)  (7, 0.)  (8, 0.)  (9, 0.)  (10, 0.)  (11, 0.)  (12, 0.)  (13, 0.)  (14, 0.)  (15, 0.)  (16, 0.)  (17, 0.)  (18, 0.)  (19, 0.)  (20, 0.)  (21, 0.)  (22, 0.)  (23, 0.)  (24, 0.)  (25, 0.)  (26, 0.0416667)  (27, 0.)  (28, 0.)  (29, 0.0416667)  (30, 0.)  (31, 0.)  (32, 0.0833333) 
row 24: (3, -0.0833333)  (4, 0.)  (5, 0.)  (6, -0.0416667)  (7, 0.)  (8, 0.)  (9, -0.0416667)  (10, 0.)  (11, 0.)  (15, 0.0833333)  (16, 0.)  (17, 0.)  (18, 0.0416667)  (19, 0.)  (20, 0.)  (21, 0.0416667)  (22, 0.)  (23, 0.)  (24, 0.)  (25, 0.)  (26, 0.)  (27, 0.)  (28, 0.)  (29, 0.)  (30, 0.)  (31, 0.)  (32, 0.) 
row 25: (3, 0.)  (4, -0.0833333)  (5, 0.)  (6, 0.)  (7, -0.0416667)  (8, 0.)  (9, 0.)  (10, -0.0416667)  (11, 0.)  (15, 0.)  (16, 0.0833333)  (17, 0.)  (18, 0.)  (19, 0.0416667)  (20, 0.)  (21, 0.)  (22, 0.0416667)  (23, 0.)  (24, 0.)  (25, 0.)  (26, 0.)  (27, 0.)  (28, 0.)  (29, 0.)  (30, 0.)  (31, 0.)  (32, 0.) 
row 26: (3, 0.)  (4, 0.)  (5, -0.0833333)  (6, 0.)  (7, 0.)  (8, -0.0416667)  (9, 0.)  (10, 0.)  (11, -0.0416667)  (15, 0.)  (16, 0.)  (17, 0.0833333)  (18, 0.)  (19, 0.)  (20, 0.0416667)  (21, 0.)  (22, 0.)  (23, 0.0416667)  (24, 0.)  (25, 0.)  (26, 0.)  (27, 0.)  (28, 0.)  (29, 0.)  (30, 0.)  (31, 0.)  (32, 0.) 
row 27: (3, -0.0416667)  (4, 0.)  (5, 0.)  (6, -0.0833333)  (7, 0.)  (8, 0.)  (9, -0.0416667)  (10, 0.)  (11, 0.)  (15, 0.0416667)  (16, 0.)  (17, 0.)  (18, 0.0833333)  (19, 0.)  (20, 0.)  (21, 0.0416667)  (22, 0.)  (23, 0.)  (24, 0.)  (25, 0.)  (26, 0.)  (27, 0.)  (28, 0.)  (29, 0.)  (30, 0.)  (31, 0.)  (32, 0.) 
row 28: (3, 0.)  (4, -0.0416667)  (5, 0.)  (6, 0.)  (7, -0.0833333)  (8, 0.)  (9, 0.)  (10, -0.0416667)  (11, 0.)  (15, 0.)  (16, 0.0416667)  (17, 0.)  (18, 0.)  (19, 0.0833333)  (20, 0.)  (21, 0.)  (22, 0.0416667)  (23, 0.)  (24, 0.)  (25, 0.)  (26, 0.)  (27, 0.)  (28, 0.)  (29, 0.)  (30, 0.)  (31, 0.)  (32, 0.) 
row 29: (3, 0.)  (4, 0.)  (5, -0.0416667)  (6, 0.)  (7, 0.)  (8, -0.0833333)  (9, 0.)  (10, 0.)  (11, -0.0416667)  (15, 0.)  (16, 0.)  (17, 0.0416667)  (18, 0.)  (19, 0.)  (20, 0.0833333)  (21, 0.)  (22, 0.)  (23, 0.0416667)  (24, 0.)  (25, 0.)  (26, 0.)  (27, 0.)  (28, 0.)  (29, 0.)  (30, 0.)  (31, 0.)  (32, 0.) 
row 30: (3, -0.0416667)  (4, 0.)  (5, 0.)  (6, -0.0416667)  (7, 0.)  (8, 0.)  (9, -0.0833333)  (10, 0.)  (11, 0.)  (15, 0.0416667)  (16, 0.)  (17, 0.)  (18, 0.0416667)  (19, 0.)  (20, 0.)  (21, 0.0833333)  (22, 0.)  (23, 0.)  (24, 0.)  (25, 0.)  (26, 0.)  (27, 0.)  (28, 0.)  (29, 0.)  (30, 0.)  (31, 0.)  (32, 0.) 
row 31: (3, 0.)  (4, -0.0416667)  (5, 0.)  (6, 0.)  (7, -0.0416667)  (8, 0.)  (9, 0.)  (10, -0.0833333)  (11, 0.)  (15, 0.)  (16, 0.0416667)  (17, 0.)  (18, 0.)  (19, 0.0416667)  (20, 0.)  (21, 0.)  (22, 0.0833333)  (23, 0.)  (24, 0.)  (25, 0.)  (26, 0.)  (27, 0.)  (28, 0.)  (29, 0.)  (30, 0.)  (31, 0.)  (32, 0.) 
row 32: (3, 0.)  (4, 0.)  (5, -0.0416667)  (6, 0.)  (7, 0.)  (8, -0.0416667)  (9, 0.)  (10, 0.)  (11, -0.0833333)  (15, 0.)  (16, 0.)  (17, 0.0416667)  (18, 0.)  (19, 0.)  (20, 0.0416667)  (21, 0.)  (22, 0.)  (23, 0.0833333)  (24, 0.)  (25, 0.)  (26, 0.)  (27, 0.)  (28, 0.)  (29, 0.)  (30, 0.)  (31, 0.)  (32, 0.) 
